…
Let’s start with a for loop.

``` r
output = vector("list", length = 100)

for (i in 1:100) {
  
  output[[i]] = sim_mean_sd(samp_size = 30)

}

bind_rows(output)
```

    ## # A tibble: 100 x 2
    ##     mean    sd
    ##    <dbl> <dbl>
    ##  1  2.97  3.98
    ##  2  4.65  3.32
    ##  3  2.07  3.72
    ##  4  2.95  4.62
    ##  5  2.10  4.32
    ##  6  3.34  3.42
    ##  7  3.92  3.37
    ##  8  2.48  3.74
    ##  9  3.69  2.77
    ## 10  2.13  3.67
    ## # … with 90 more rows
…
